{
	"process_id" : 19040,
	"version" : "2018.3.4f1",
	"app_path" : "C:/Program Files/Unity/Hub/Editor/2018.2.6f1/Editor/Unity.exe",
	"app_contents_path" : "C:/Program Files/Unity/Hub/Editor/2018.2.6f1/Editor/Data"
}